<?xml version="1.0" encoding="UTF-8" standalone="no"?>
<!-- Created with Inkscape (http://www.inkscape.org/) -->

<svg
   xmlns:dc="http://purl.org/dc/elements/1.1/"
   xmlns:cc="http://creativecommons.org/ns#"
   xmlns:rdf="http://www.w3.org/1999/02/22-rdf-syntax-ns#"
   xmlns:svg="http://www.w3.org/2000/svg"
   xmlns="http://www.w3.org/2000/svg"
   xmlns:sodipodi="http://sodipodi.sourceforge.net/DTD/sodipodi-0.dtd"
   xmlns:inkscape="http://www.inkscape.org/namespaces/inkscape"
   width="210mm"
   height="297mm"
   viewBox="0 0 744.09448819 1052.3622047"
   id="svg2"
   version="1.1"
   inkscape:version="0.91 r13725"
   sodipodi:docname="esp-12f_hookup.svg"
   shape-rendering="crispEdges">
  <defs
     id="defs4">
    <marker
       inkscape:stockid="Arrow2Lend"
       orient="auto"
       refY="0.0"
       refX="0.0"
       id="marker21406"
       style="overflow:visible;"
       inkscape:isstock="true">
      <path
         id="path21408"
         style="fill-rule:evenodd;stroke-width:0.625;stroke-linejoin:round;stroke:#b10000;stroke-opacity:1;fill:#b10000;fill-opacity:1"
         d="M 8.7185878,4.0337352 L -2.2072895,0.016013256 L 8.7185884,-4.0017078 C 6.9730900,-1.6296469 6.9831476,1.6157441 8.7185878,4.0337352 z "
         transform="scale(1.1) rotate(180) translate(1,0)" />
    </marker>
    <marker
       inkscape:stockid="Arrow1Lend"
       orient="auto"
       refY="0.0"
       refX="0.0"
       id="Arrow1Lend"
       style="overflow:visible;"
       inkscape:isstock="true">
      <path
         id="path4353"
         d="M 0.0,0.0 L 5.0,-5.0 L -12.5,0.0 L 5.0,5.0 L 0.0,0.0 z "
         style="fill-rule:evenodd;stroke:#b10000;stroke-width:1pt;stroke-opacity:1;fill:#b10000;fill-opacity:1"
         transform="scale(0.8) rotate(180) translate(12.5,0)" />
    </marker>
  </defs>
  <sodipodi:namedview
     id="base"
     pagecolor="#ffffff"
     bordercolor="#666666"
     borderopacity="1.0"
     inkscape:pageopacity="0.69803922"
     inkscape:pageshadow="2"
     inkscape:zoom="2.4688577"
     inkscape:cx="273.41825"
     inkscape:cy="518.09392"
     inkscape:document-units="px"
     inkscape:current-layer="layer1"
     showgrid="true"
     showguides="false"
     inkscape:snap-page="true"
     inkscape:snap-grids="true"
     inkscape:window-width="1920"
     inkscape:window-height="1178"
     inkscape:window-x="-8"
     inkscape:window-y="-8"
     inkscape:window-maximized="1"
     inkscape:snap-text-baseline="true"
     showborder="false">
    <inkscape:grid
       type="xygrid"
       id="grid4142" />
  </sodipodi:namedview>
  <metadata
     id="metadata7">
    <rdf:RDF>
      <cc:Work
         rdf:about="">
        <dc:format>image/svg+xml</dc:format>
        <dc:type
           rdf:resource="http://purl.org/dc/dcmitype/StillImage" />
        <dc:title></dc:title>
      </cc:Work>
    </rdf:RDF>
  </metadata>
  <g
     inkscape:label="Layer 1"
     inkscape:groupmode="layer"
     id="layer1">
    <rect
       style="opacity:1;fill:#f1f1f1;fill-opacity:1;fill-rule:evenodd;stroke:#b10000;stroke-width:1.0453335;stroke-linecap:butt;stroke-linejoin:miter;stroke-miterlimit:4;stroke-dasharray:none;stroke-opacity:0"
       id="rect4646"
       width="410.18127"
       height="187.21982"
       x="76.795128"
       y="372.67664"
       inkscape:export-xdpi="120"
       inkscape:export-ydpi="120" />
    <path
       style="fill:#0a0a0a;fill-rule:evenodd;stroke:#000000;stroke-width:0.1;stroke-linecap:butt;stroke-linejoin:miter;stroke-opacity:1;stroke-miterlimit:4;stroke-dasharray:none;fill-opacity:1;marker-end:"
       d="m 205,442.3622 0,75 -125,0 0,-75 z"
       id="path4509"
       inkscape:connector-curvature="0"
       inkscape:export-xdpi="120"
       inkscape:export-ydpi="120" />
    <g
       id="g4156"
       transform="matrix(0.1,0,0,0.1,112.53009,462.65517)"
       inkscape:export-xdpi="120"
       inkscape:export-ydpi="120">
      <g
         id="g4153">
        <path
           style="fill:#806600;fill-rule:evenodd;stroke:#000000;stroke-width:1px;stroke-linecap:butt;stroke-linejoin:miter;stroke-opacity:1"
           d="m 90.408653,482.5099 -0.126269,64.77604 14.773476,0.12626 c 2.48416,-7.97482 9.94414,-15.05 19.82425,-15.40482 10.11989,0.35482 17.17179,8.19799 20.07678,15.53109 l 14.89975,0 0.12626,-65.15484 z"
           id="path4140"
           inkscape:connector-curvature="0"
           sodipodi:nodetypes="cccccccc" />
      </g>
      <circle
         r="7.5"
         cy="510.04074"
         cx="125"
         id="path4151"
         style="opacity:1;fill:#000000;fill-opacity:1;fill-rule:evenodd;stroke:#000000;stroke-width:1.20000005;stroke-linecap:round;stroke-linejoin:miter;stroke-miterlimit:4;stroke-dasharray:none;stroke-opacity:1" />
    </g>
    <g
       id="g4156-3"
       transform="matrix(0.1,0,0,0.1,122.54794,462.56588)"
       inkscape:export-xdpi="120"
       inkscape:export-ydpi="120">
      <g
         id="g4153-8">
        <path
           style="fill:#806600;fill-rule:evenodd;stroke:#000000;stroke-width:1px;stroke-linecap:butt;stroke-linejoin:miter;stroke-opacity:1"
           d="m 90.408653,482.5099 -0.126269,64.77604 14.773476,0.12626 c 2.48416,-7.97482 9.94414,-15.05 19.82425,-15.40482 10.11989,0.35482 17.17179,8.19799 20.07678,15.53109 l 14.89975,0 0.12626,-65.15484 z"
           id="path4140-0"
           inkscape:connector-curvature="0"
           sodipodi:nodetypes="cccccccc" />
      </g>
      <circle
         r="7.5"
         cy="510.04074"
         cx="125"
         id="path4151-5"
         style="opacity:1;fill:#000000;fill-opacity:1;fill-rule:evenodd;stroke:#000000;stroke-width:1.20000005;stroke-linecap:round;stroke-linejoin:miter;stroke-miterlimit:4;stroke-dasharray:none;stroke-opacity:1" />
    </g>
    <g
       transform="matrix(0.1,0,0,0.1,132.54794,462.61052)"
       id="g4197"
       inkscape:export-xdpi="120"
       inkscape:export-ydpi="120">
      <g
         id="g4199">
        <path
           sodipodi:nodetypes="cccccccc"
           inkscape:connector-curvature="0"
           id="path4201"
           d="m 90.408653,482.5099 -0.126269,64.77604 14.773476,0.12626 c 2.48416,-7.97482 9.94414,-15.05 19.82425,-15.40482 10.11989,0.35482 17.17179,8.19799 20.07678,15.53109 l 14.89975,0 0.12626,-65.15484 z"
           style="fill:#806600;fill-rule:evenodd;stroke:#000000;stroke-width:1px;stroke-linecap:butt;stroke-linejoin:miter;stroke-opacity:1" />
      </g>
      <circle
         style="opacity:1;fill:#000000;fill-opacity:1;fill-rule:evenodd;stroke:#000000;stroke-width:1.20000005;stroke-linecap:round;stroke-linejoin:miter;stroke-miterlimit:4;stroke-dasharray:none;stroke-opacity:1"
         id="circle4203"
         cx="125"
         cy="510.04074"
         r="7.5" />
    </g>
    <g
       id="g4205"
       transform="matrix(0.1,0,0,0.1,142.5232,462.57354)"
       inkscape:export-xdpi="120"
       inkscape:export-ydpi="120">
      <g
         id="g4207">
        <path
           style="fill:#806600;fill-rule:evenodd;stroke:#000000;stroke-width:1px;stroke-linecap:butt;stroke-linejoin:miter;stroke-opacity:1"
           d="m 90.408653,482.5099 -0.126269,64.77604 14.773476,0.12626 c 2.48416,-7.97482 9.94414,-15.05 19.82425,-15.40482 10.11989,0.35482 17.17179,8.19799 20.07678,15.53109 l 14.89975,0 0.12626,-65.15484 z"
           id="path4209"
           inkscape:connector-curvature="0"
           sodipodi:nodetypes="cccccccc" />
      </g>
      <circle
         r="7.5"
         cy="510.04074"
         cx="125"
         id="circle4211"
         style="opacity:1;fill:#000000;fill-opacity:1;fill-rule:evenodd;stroke:#000000;stroke-width:1.20000005;stroke-linecap:round;stroke-linejoin:miter;stroke-miterlimit:4;stroke-dasharray:none;stroke-opacity:1" />
    </g>
    <g
       transform="matrix(0.1,0,0,0.1,152.57473,462.56588)"
       id="g4213"
       inkscape:export-xdpi="120"
       inkscape:export-ydpi="120">
      <g
         id="g4215">
        <path
           sodipodi:nodetypes="cccccccc"
           inkscape:connector-curvature="0"
           id="path4217"
           d="m 90.408653,482.5099 -0.126269,64.77604 14.773476,0.12626 c 2.48416,-7.97482 9.94414,-15.05 19.82425,-15.40482 10.11989,0.35482 17.17179,8.19799 20.07678,15.53109 l 14.89975,0 0.12626,-65.15484 z"
           style="fill:#806600;fill-rule:evenodd;stroke:#000000;stroke-width:1px;stroke-linecap:butt;stroke-linejoin:miter;stroke-opacity:1" />
      </g>
      <circle
         style="opacity:1;fill:#000000;fill-opacity:1;fill-rule:evenodd;stroke:#000000;stroke-width:1.20000005;stroke-linecap:round;stroke-linejoin:miter;stroke-miterlimit:4;stroke-dasharray:none;stroke-opacity:1"
         id="circle4219"
         cx="125"
         cy="510.04074"
         r="7.5" />
    </g>
    <g
       transform="matrix(0.1,0,0,0.1,162.52562,462.61052)"
       id="g4221"
       inkscape:export-xdpi="120"
       inkscape:export-ydpi="120">
      <g
         id="g4223">
        <path
           sodipodi:nodetypes="cccccccc"
           inkscape:connector-curvature="0"
           id="path4225"
           d="m 90.408653,482.5099 -0.126269,64.77604 14.773476,0.12626 c 2.48416,-7.97482 9.94414,-15.05 19.82425,-15.40482 10.11989,0.35482 17.17179,8.19799 20.07678,15.53109 l 14.89975,0 0.12626,-65.15484 z"
           style="fill:#806600;fill-rule:evenodd;stroke:#000000;stroke-width:1px;stroke-linecap:butt;stroke-linejoin:miter;stroke-opacity:1" />
      </g>
      <circle
         style="opacity:1;fill:#000000;fill-opacity:1;fill-rule:evenodd;stroke:#000000;stroke-width:1.20000005;stroke-linecap:round;stroke-linejoin:miter;stroke-miterlimit:4;stroke-dasharray:none;stroke-opacity:1"
         id="circle4227"
         cx="125"
         cy="510.04074"
         r="7.5" />
    </g>
    <g
       id="g4229"
       transform="matrix(0.1,0,0,0.1,172.50329,462.58819)"
       inkscape:export-xdpi="120"
       inkscape:export-ydpi="120">
      <g
         id="g4231">
        <path
           style="fill:#806600;fill-rule:evenodd;stroke:#000000;stroke-width:1px;stroke-linecap:butt;stroke-linejoin:miter;stroke-opacity:1"
           d="m 90.408653,482.5099 -0.126269,64.77604 14.773476,0.12626 c 2.48416,-7.97482 9.94414,-15.05 19.82425,-15.40482 10.11989,0.35482 17.17179,8.19799 20.07678,15.53109 l 14.89975,0 0.12626,-65.15484 z"
           id="path4233"
           inkscape:connector-curvature="0"
           sodipodi:nodetypes="cccccccc" />
      </g>
      <circle
         r="7.5"
         cy="510.04074"
         cx="125"
         id="circle4235"
         style="opacity:1;fill:#000000;fill-opacity:1;fill-rule:evenodd;stroke:#000000;stroke-width:1.20000005;stroke-linecap:round;stroke-linejoin:miter;stroke-miterlimit:4;stroke-dasharray:none;stroke-opacity:1" />
    </g>
    <g
       transform="matrix(0.1,0,0,0.1,182.54552,462.59586)"
       id="g4237"
       inkscape:export-xdpi="120"
       inkscape:export-ydpi="120">
      <g
         id="g4239">
        <path
           sodipodi:nodetypes="cccccccc"
           inkscape:connector-curvature="0"
           id="path4241"
           d="m 90.408653,482.5099 -0.126269,64.77604 14.773476,0.12626 c 2.48416,-7.97482 9.94414,-15.05 19.82425,-15.40482 10.11989,0.35482 17.17179,8.19799 20.07678,15.53109 l 14.89975,0 0.12626,-65.15484 z"
           style="fill:#806600;fill-rule:evenodd;stroke:#000000;stroke-width:1px;stroke-linecap:butt;stroke-linejoin:miter;stroke-opacity:1" />
      </g>
      <circle
         style="opacity:1;fill:#000000;fill-opacity:1;fill-rule:evenodd;stroke:#000000;stroke-width:1.20000005;stroke-linecap:round;stroke-linejoin:miter;stroke-miterlimit:4;stroke-dasharray:none;stroke-opacity:1"
         id="circle4243"
         cx="125"
         cy="510.04074"
         r="7.5" />
    </g>
    <g
       transform="matrix(-0.1,0,0,-0.1,207.51816,497.1294)"
       id="g4245"
       inkscape:export-xdpi="120"
       inkscape:export-ydpi="120">
      <g
         id="g4247">
        <path
           sodipodi:nodetypes="cccccccc"
           inkscape:connector-curvature="0"
           id="path4249"
           d="m 90.408653,482.5099 -0.126269,64.77604 14.773476,0.12626 c 2.48416,-7.97482 9.94414,-15.05 19.82425,-15.40482 10.11989,0.35482 17.17179,8.19799 20.07678,15.53109 l 14.89975,0 0.12626,-65.15484 z"
           style="fill:#806600;fill-rule:evenodd;stroke:#000000;stroke-width:1px;stroke-linecap:butt;stroke-linejoin:miter;stroke-opacity:1" />
      </g>
      <circle
         style="opacity:1;fill:#000000;fill-opacity:1;fill-rule:evenodd;stroke:#000000;stroke-width:1.20000005;stroke-linecap:round;stroke-linejoin:miter;stroke-miterlimit:4;stroke-dasharray:none;stroke-opacity:1"
         id="circle4251"
         cx="125"
         cy="510.04074"
         r="7.5" />
    </g>
    <g
       transform="matrix(-0.1,0,0,-0.1,197.54495,497.15173)"
       id="g4253"
       inkscape:export-xdpi="120"
       inkscape:export-ydpi="120">
      <g
         id="g4255">
        <path
           sodipodi:nodetypes="cccccccc"
           inkscape:connector-curvature="0"
           id="path4257"
           d="m 90.408653,482.5099 -0.126269,64.77604 14.773476,0.12626 c 2.48416,-7.97482 9.94414,-15.05 19.82425,-15.40482 10.11989,0.35482 17.17179,8.19799 20.07678,15.53109 l 14.89975,0 0.12626,-65.15484 z"
           style="fill:#806600;fill-rule:evenodd;stroke:#000000;stroke-width:1px;stroke-linecap:butt;stroke-linejoin:miter;stroke-opacity:1" />
      </g>
      <circle
         style="opacity:1;fill:#000000;fill-opacity:1;fill-rule:evenodd;stroke:#000000;stroke-width:1.20000005;stroke-linecap:round;stroke-linejoin:miter;stroke-miterlimit:4;stroke-dasharray:none;stroke-opacity:1"
         id="circle4259"
         cx="125"
         cy="510.04074"
         r="7.5" />
    </g>
    <g
       id="g4261"
       transform="matrix(-0.1,0,0,-0.1,187.54495,497.10709)"
       inkscape:export-xdpi="120"
       inkscape:export-ydpi="120">
      <g
         id="g4263">
        <path
           style="fill:#806600;fill-rule:evenodd;stroke:#000000;stroke-width:1px;stroke-linecap:butt;stroke-linejoin:miter;stroke-opacity:1"
           d="m 90.408653,482.5099 -0.126269,64.77604 14.773476,0.12626 c 2.48416,-7.97482 9.94414,-15.05 19.82425,-15.40482 10.11989,0.35482 17.17179,8.19799 20.07678,15.53109 l 14.89975,0 0.12626,-65.15484 z"
           id="path4265"
           inkscape:connector-curvature="0"
           sodipodi:nodetypes="cccccccc" />
      </g>
      <circle
         r="7.5"
         cy="510.04074"
         cx="125"
         id="circle4267"
         style="opacity:1;fill:#000000;fill-opacity:1;fill-rule:evenodd;stroke:#000000;stroke-width:1.20000005;stroke-linecap:round;stroke-linejoin:miter;stroke-miterlimit:4;stroke-dasharray:none;stroke-opacity:1" />
    </g>
    <g
       transform="matrix(-0.1,0,0,-0.1,177.56969,497.14407)"
       id="g4269"
       inkscape:export-xdpi="120"
       inkscape:export-ydpi="120">
      <g
         id="g4271">
        <path
           sodipodi:nodetypes="cccccccc"
           inkscape:connector-curvature="0"
           id="path4273"
           d="m 90.408653,482.5099 -0.126269,64.77604 14.773476,0.12626 c 2.48416,-7.97482 9.94414,-15.05 19.82425,-15.40482 10.11989,0.35482 17.17179,8.19799 20.07678,15.53109 l 14.89975,0 0.12626,-65.15484 z"
           style="fill:#806600;fill-rule:evenodd;stroke:#000000;stroke-width:1px;stroke-linecap:butt;stroke-linejoin:miter;stroke-opacity:1" />
      </g>
      <circle
         style="opacity:1;fill:#000000;fill-opacity:1;fill-rule:evenodd;stroke:#000000;stroke-width:1.20000005;stroke-linecap:round;stroke-linejoin:miter;stroke-miterlimit:4;stroke-dasharray:none;stroke-opacity:1"
         id="circle4275"
         cx="125"
         cy="510.04074"
         r="7.5" />
    </g>
    <g
       id="g4277"
       transform="matrix(-0.1,0,0,-0.1,167.51816,497.15173)"
       inkscape:export-xdpi="120"
       inkscape:export-ydpi="120">
      <g
         id="g4279">
        <path
           style="fill:#806600;fill-rule:evenodd;stroke:#000000;stroke-width:1px;stroke-linecap:butt;stroke-linejoin:miter;stroke-opacity:1"
           d="m 90.408653,482.5099 -0.126269,64.77604 14.773476,0.12626 c 2.48416,-7.97482 9.94414,-15.05 19.82425,-15.40482 10.11989,0.35482 17.17179,8.19799 20.07678,15.53109 l 14.89975,0 0.12626,-65.15484 z"
           id="path4281"
           inkscape:connector-curvature="0"
           sodipodi:nodetypes="cccccccc" />
      </g>
      <circle
         r="7.5"
         cy="510.04074"
         cx="125"
         id="circle4283"
         style="opacity:1;fill:#000000;fill-opacity:1;fill-rule:evenodd;stroke:#000000;stroke-width:1.20000005;stroke-linecap:round;stroke-linejoin:miter;stroke-miterlimit:4;stroke-dasharray:none;stroke-opacity:1" />
    </g>
    <g
       id="g4285"
       transform="matrix(-0.1,0,0,-0.1,157.50031,497.12941)"
       inkscape:export-xdpi="120"
       inkscape:export-ydpi="120">
      <g
         id="g4287">
        <path
           style="fill:#806600;fill-rule:evenodd;stroke:#000000;stroke-width:1px;stroke-linecap:butt;stroke-linejoin:miter;stroke-opacity:1"
           d="m 90.408653,482.5099 -0.126269,64.77604 14.773476,0.12626 c 2.48416,-7.97482 9.94414,-15.05 19.82425,-15.40482 10.11989,0.35482 17.17179,8.19799 20.07678,15.53109 l 14.89975,0 0.12626,-65.15484 z"
           id="path4289"
           inkscape:connector-curvature="0"
           sodipodi:nodetypes="cccccccc" />
      </g>
      <circle
         r="7.5"
         cy="510.04074"
         cx="125"
         id="circle4291"
         style="opacity:1;fill:#000000;fill-opacity:1;fill-rule:evenodd;stroke:#000000;stroke-width:1.20000005;stroke-linecap:round;stroke-linejoin:miter;stroke-miterlimit:4;stroke-dasharray:none;stroke-opacity:1" />
    </g>
    <g
       transform="matrix(-0.1,0,0,-0.1,147.52263,497.15174)"
       id="g4293"
       inkscape:export-xdpi="120"
       inkscape:export-ydpi="120">
      <g
         id="g4295">
        <path
           sodipodi:nodetypes="cccccccc"
           inkscape:connector-curvature="0"
           id="path4297"
           d="m 90.408653,482.5099 -0.126269,64.77604 14.773476,0.12626 c 2.48416,-7.97482 9.94414,-15.05 19.82425,-15.40482 10.11989,0.35482 17.17179,8.19799 20.07678,15.53109 l 14.89975,0 0.12626,-65.15484 z"
           style="fill:#806600;fill-rule:evenodd;stroke:#000000;stroke-width:1px;stroke-linecap:butt;stroke-linejoin:miter;stroke-opacity:1" />
      </g>
      <circle
         style="opacity:1;fill:#000000;fill-opacity:1;fill-rule:evenodd;stroke:#000000;stroke-width:1.20000005;stroke-linecap:round;stroke-linejoin:miter;stroke-miterlimit:4;stroke-dasharray:none;stroke-opacity:1"
         id="circle4299"
         cx="125"
         cy="510.04074"
         r="7.5" />
    </g>
    <g
       id="g4301"
       transform="matrix(-0.1,0,0,-0.1,137.52505,497.1664)"
       inkscape:export-xdpi="120"
       inkscape:export-ydpi="120">
      <g
         id="g4303">
        <path
           style="fill:#806600;fill-rule:evenodd;stroke:#000000;stroke-width:1px;stroke-linecap:butt;stroke-linejoin:miter;stroke-opacity:1"
           d="m 90.408653,482.5099 -0.126269,64.77604 14.773476,0.12626 c 2.48416,-7.97482 9.94414,-15.05 19.82425,-15.40482 10.11989,0.35482 17.17179,8.19799 20.07678,15.53109 l 14.89975,0 0.12626,-65.15484 z"
           id="path4305"
           inkscape:connector-curvature="0"
           sodipodi:nodetypes="cccccccc" />
      </g>
      <circle
         r="7.5"
         cy="510.04074"
         cx="125"
         id="circle4307"
         style="opacity:1;fill:#000000;fill-opacity:1;fill-rule:evenodd;stroke:#000000;stroke-width:1.20000005;stroke-linecap:round;stroke-linejoin:miter;stroke-miterlimit:4;stroke-dasharray:none;stroke-opacity:1" />
    </g>
    <g
       transform="matrix(0,-0.1,0.1,0,150.41952,517.42224)"
       id="g4421"
       inkscape:export-xdpi="120"
       inkscape:export-ydpi="120">
      <g
         id="g4423">
        <path
           sodipodi:nodetypes="cccccccc"
           inkscape:connector-curvature="0"
           id="path4425"
           d="m 90.408653,482.5099 -0.126269,64.77604 14.773476,0.12626 c 2.48416,-7.97482 9.94414,-15.05 19.82425,-15.40482 10.11989,0.35482 17.17179,8.19799 20.07678,15.53109 l 14.89975,0 0.12626,-65.15484 z"
           style="fill:#806600;fill-rule:evenodd;stroke:#000000;stroke-width:1px;stroke-linecap:butt;stroke-linejoin:miter;stroke-opacity:1" />
      </g>
    </g>
    <g
       id="g4429"
       transform="matrix(0,-0.1,0.1,0,150.38254,507.44698)"
       inkscape:export-xdpi="120"
       inkscape:export-ydpi="120">
      <g
         id="g4431">
        <path
           style="fill:#806600;fill-rule:evenodd;stroke:#000000;stroke-width:1px;stroke-linecap:butt;stroke-linejoin:miter;stroke-opacity:1"
           d="m 90.408653,482.5099 -0.126269,64.77604 14.773476,0.12626 c 2.48416,-7.97482 9.94414,-15.05 19.82425,-15.40482 10.11989,0.35482 17.17179,8.19799 20.07678,15.53109 l 14.89975,0 0.12626,-65.15484 z"
           id="path4433"
           inkscape:connector-curvature="0"
           sodipodi:nodetypes="cccccccc" />
      </g>
    </g>
    <g
       transform="matrix(0,-0.1,0.1,0,150.37488,497.39545)"
       id="g4437"
       inkscape:export-xdpi="120"
       inkscape:export-ydpi="120">
      <g
         id="g4439">
        <path
           sodipodi:nodetypes="cccccccc"
           inkscape:connector-curvature="0"
           id="path4441"
           d="m 90.408653,482.5099 -0.126269,64.77604 14.773476,0.12626 c 2.48416,-7.97482 9.94414,-15.05 19.82425,-15.40482 10.11989,0.35482 17.17179,8.19799 20.07678,15.53109 l 14.89975,0 0.12626,-65.15484 z"
           style="fill:#806600;fill-rule:evenodd;stroke:#000000;stroke-width:1px;stroke-linecap:butt;stroke-linejoin:miter;stroke-opacity:1" />
      </g>
      <circle
         style="opacity:1;fill:#000000;fill-opacity:1;fill-rule:evenodd;stroke:#000000;stroke-width:1.20000005;stroke-linecap:round;stroke-linejoin:miter;stroke-miterlimit:4;stroke-dasharray:none;stroke-opacity:1"
         id="circle4443"
         cx="125"
         cy="510.04074"
         r="7.5" />
    </g>
    <g
       transform="matrix(0,-0.1,0.1,0,150.28559,487.3776)"
       id="g4445"
       inkscape:export-xdpi="120"
       inkscape:export-ydpi="120">
      <g
         id="g4447">
        <path
           sodipodi:nodetypes="cccccccc"
           inkscape:connector-curvature="0"
           id="path4449"
           d="m 90.408653,482.5099 -0.126269,64.77604 14.773476,0.12626 c 2.48416,-7.97482 9.94414,-15.05 19.82425,-15.40482 10.11989,0.35482 17.17179,8.19799 20.07678,15.53109 l 14.89975,0 0.12626,-65.15484 z"
           style="fill:#806600;fill-rule:evenodd;stroke:#000000;stroke-width:1px;stroke-linecap:butt;stroke-linejoin:miter;stroke-opacity:1" />
      </g>
      <circle
         style="opacity:1;fill:#000000;fill-opacity:1;fill-rule:evenodd;stroke:#000000;stroke-width:1.20000005;stroke-linecap:round;stroke-linejoin:miter;stroke-miterlimit:4;stroke-dasharray:none;stroke-opacity:1"
         id="circle4451"
         cx="125"
         cy="510.04074"
         r="7.5" />
    </g>
    <g
       id="g4453"
       transform="matrix(0,-0.1,0.1,0,150.33023,477.3776)"
       inkscape:export-xdpi="120"
       inkscape:export-ydpi="120">
      <g
         id="g4455">
        <path
           style="fill:#806600;fill-rule:evenodd;stroke:#000000;stroke-width:1px;stroke-linecap:butt;stroke-linejoin:miter;stroke-opacity:1"
           d="m 90.408653,482.5099 -0.126269,64.77604 14.773476,0.12626 c 2.48416,-7.97482 9.94414,-15.05 19.82425,-15.40482 10.11989,0.35482 17.17179,8.19799 20.07678,15.53109 l 14.89975,0 0.12626,-65.15484 z"
           id="path4457"
           inkscape:connector-curvature="0"
           sodipodi:nodetypes="cccccccc" />
      </g>
      <circle
         r="7.5"
         cy="510.04074"
         cx="125"
         id="circle4459"
         style="opacity:1;fill:#000000;fill-opacity:1;fill-rule:evenodd;stroke:#000000;stroke-width:1.20000005;stroke-linecap:round;stroke-linejoin:miter;stroke-miterlimit:4;stroke-dasharray:none;stroke-opacity:1" />
    </g>
    <g
       transform="matrix(0,-0.1,0.1,0,150.29325,467.40234)"
       id="g4461"
       inkscape:export-xdpi="120"
       inkscape:export-ydpi="120">
      <g
         id="g4463">
        <path
           sodipodi:nodetypes="cccccccc"
           inkscape:connector-curvature="0"
           id="path4465"
           d="m 90.408653,482.5099 -0.126269,64.77604 14.773476,0.12626 c 2.48416,-7.97482 9.94414,-15.05 19.82425,-15.40482 10.11989,0.35482 17.17179,8.19799 20.07678,15.53109 l 14.89975,0 0.12626,-65.15484 z"
           style="fill:#806600;fill-rule:evenodd;stroke:#000000;stroke-width:1px;stroke-linecap:butt;stroke-linejoin:miter;stroke-opacity:1" />
      </g>
      <circle
         style="opacity:1;fill:#000000;fill-opacity:1;fill-rule:evenodd;stroke:#000000;stroke-width:1.20000005;stroke-linecap:round;stroke-linejoin:miter;stroke-miterlimit:4;stroke-dasharray:none;stroke-opacity:1"
         id="circle4467"
         cx="125"
         cy="510.04074"
         r="7.5" />
    </g>
    <g
       id="g4469"
       transform="matrix(0,-0.1,0.1,0,150.37488,497.39545)"
       inkscape:export-xdpi="120"
       inkscape:export-ydpi="120">
      <g
         id="g4471">
        <path
           style="fill:#806600;fill-rule:evenodd;stroke:#000000;stroke-width:1px;stroke-linecap:butt;stroke-linejoin:miter;stroke-opacity:1"
           d="m 90.408653,482.5099 -0.126269,64.77604 14.773476,0.12626 c 2.48416,-7.97482 9.94414,-15.05 19.82425,-15.40482 10.11989,0.35482 17.17179,8.19799 20.07678,15.53109 l 14.89975,0 0.12626,-65.15484 z"
           id="path4473"
           inkscape:connector-curvature="0"
           sodipodi:nodetypes="cccccccc" />
      </g>
    </g>
    <g
       id="g4477"
       transform="matrix(0,-0.1,0.1,0,150.28559,487.3776)"
       inkscape:export-xdpi="120"
       inkscape:export-ydpi="120">
      <g
         id="g4479">
        <path
           style="fill:#806600;fill-rule:evenodd;stroke:#000000;stroke-width:1px;stroke-linecap:butt;stroke-linejoin:miter;stroke-opacity:1"
           d="m 90.408653,482.5099 -0.126269,64.77604 14.773476,0.12626 c 2.48416,-7.97482 9.94414,-15.05 19.82425,-15.40482 10.11989,0.35482 17.17179,8.19799 20.07678,15.53109 l 14.89975,0 0.12626,-65.15484 z"
           id="path4481"
           inkscape:connector-curvature="0"
           sodipodi:nodetypes="cccccccc" />
      </g>
    </g>
    <g
       transform="matrix(0,-0.1,0.1,0,150.33023,477.3776)"
       id="g4485"
       inkscape:export-xdpi="120"
       inkscape:export-ydpi="120">
      <g
         id="g4487">
        <path
           sodipodi:nodetypes="cccccccc"
           inkscape:connector-curvature="0"
           id="path4489"
           d="m 90.408653,482.5099 -0.126269,64.77604 14.773476,0.12626 c 2.48416,-7.97482 9.94414,-15.05 19.82425,-15.40482 10.11989,0.35482 17.17179,8.19799 20.07678,15.53109 l 14.89975,0 0.12626,-65.15484 z"
           style="fill:#806600;fill-rule:evenodd;stroke:#000000;stroke-width:1px;stroke-linecap:butt;stroke-linejoin:miter;stroke-opacity:1" />
      </g>
    </g>
    <g
       id="g4493"
       transform="matrix(0,-0.1,0.1,0,150.29325,467.40234)"
       inkscape:export-xdpi="120"
       inkscape:export-ydpi="120">
      <g
         id="g4495">
        <path
           style="fill:#806600;fill-rule:evenodd;stroke:#000000;stroke-width:1px;stroke-linecap:butt;stroke-linejoin:miter;stroke-opacity:1"
           d="m 90.408653,482.5099 -0.126269,64.77604 14.773476,0.12626 c 2.48416,-7.97482 9.94414,-15.05 19.82425,-15.40482 10.11989,0.35482 17.17179,8.19799 20.07678,15.53109 l 14.89975,0 0.12626,-65.15484 z"
           id="path4497"
           inkscape:connector-curvature="0"
           sodipodi:nodetypes="cccccccc" />
      </g>
    </g>
    <path
       style="fill:#6b6b6b;fill-rule:evenodd;stroke:#000000;stroke-width:1;stroke-linecap:butt;stroke-linejoin:miter;stroke-opacity:1;stroke-miterlimit:4;stroke-dasharray:none;fill-opacity:1;marker-end:"
       d="m 120,452.3622 75,0 0,55 -75,0 z"
       id="path4503"
       inkscape:connector-curvature="0"
       inkscape:export-xdpi="120"
       inkscape:export-ydpi="120" />
    <path
       style="fill:none;fill-rule:evenodd;stroke:#806600;stroke-width:2.5;stroke-linecap:butt;stroke-linejoin:miter;stroke-miterlimit:4;stroke-dasharray:none;stroke-opacity:1;marker-end:"
       d="m 120,497.3622 -35,0 0,-10 15,0 0,-10 -15,0 0,-10 15.12627,-0.12627 0,-10 L 85,457.3622 l 0,-10 24.9477,0.0523"
       id="path4513"
       inkscape:connector-curvature="0"
       sodipodi:nodetypes="cccccccccccc"
       inkscape:export-xdpi="120"
       inkscape:export-ydpi="120" />
    <path
       style="fill:none;fill-rule:evenodd;stroke:#806600;stroke-width:2.5;stroke-linecap:butt;stroke-linejoin:miter;stroke-opacity:1;stroke-miterlimit:4;stroke-dasharray:none;marker-end:"
       d="m 85,497.3622 0,15 30,0"
       id="path4515"
       inkscape:connector-curvature="0"
       inkscape:export-xdpi="120"
       inkscape:export-ydpi="120" />
    <rect
       style="opacity:1;fill:#0a9a0a;fill-opacity:1;fill-rule:evenodd;stroke:none;stroke-width:2.5;stroke-linecap:round;stroke-linejoin:miter;stroke-miterlimit:4;stroke-dasharray:none;stroke-opacity:1"
       id="rect4517"
       width="6"
       height="10.821428"
       x="112.0625"
       y="447.45151"
       inkscape:export-xdpi="120"
       inkscape:export-ydpi="120" />
    <text
       xml:space="preserve"
       style="font-style:normal;font-variant:normal;font-weight:normal;font-stretch:normal;font-size:13.75px;line-height:125%;font-family:Sans;-inkscape-font-specification:'Sans, Normal';text-align:start;letter-spacing:0px;word-spacing:0px;writing-mode:lr-tb;text-anchor:start;fill:#000000;fill-opacity:1;stroke:none;stroke-width:1px;stroke-linecap:butt;stroke-linejoin:miter;stroke-opacity:1"
       x="128.5"
       y="483.61221"
       id="text4519"
       sodipodi:linespacing="125%"
       inkscape:export-xdpi="120"
       inkscape:export-ydpi="120"><tspan
         sodipodi:role="line"
         id="tspan4521"
         x="128.5"
         y="483.61221">ESP-12F</tspan></text>
    <rect
       style="opacity:1;fill:#0a000a;fill-opacity:1;fill-rule:evenodd;stroke:none;stroke-width:2.5;stroke-linecap:round;stroke-linejoin:miter;stroke-miterlimit:4;stroke-dasharray:none;stroke-opacity:1"
       id="rect4523"
       width="20"
       height="10"
       x="264.59634"
       y="437.13422"
       inkscape:export-xdpi="120"
       inkscape:export-ydpi="120" />
    <rect
       style="opacity:1;fill:#666666;fill-opacity:1;fill-rule:evenodd;stroke:none;stroke-width:2.5;stroke-linecap:round;stroke-linejoin:miter;stroke-miterlimit:4;stroke-dasharray:none;stroke-opacity:1"
       id="rect4527"
       width="3"
       height="10"
       x="264.59634"
       y="437.13422"
       inkscape:export-xdpi="120"
       inkscape:export-ydpi="120" />
    <rect
       y="437.13422"
       x="281.58902"
       height="10"
       width="3"
       id="rect4538"
       style="opacity:1;fill:#666666;fill-opacity:1;fill-rule:evenodd;stroke:none;stroke-width:2.5;stroke-linecap:round;stroke-linejoin:miter;stroke-miterlimit:4;stroke-dasharray:none;stroke-opacity:1"
       inkscape:export-xdpi="120"
       inkscape:export-ydpi="120" />
    <text
       xml:space="preserve"
       style="font-style:normal;font-variant:normal;font-weight:normal;font-stretch:normal;font-size:7.5px;line-height:89.99999762%;font-family:Sans;-inkscape-font-specification:'Sans, Normal';text-align:start;letter-spacing:0px;word-spacing:0px;writing-mode:lr-tb;text-anchor:start;fill:#000000;fill-opacity:1;stroke:none;stroke-width:1px;stroke-linecap:butt;stroke-linejoin:miter;stroke-opacity:1"
       x="270.10266"
       y="444.80432"
       id="text4540"
       sodipodi:linespacing="89.999998%"
       inkscape:export-xdpi="120"
       inkscape:export-ydpi="120"><tspan
         sodipodi:role="line"
         id="tspan4542"
         x="270.10266"
         y="444.80432"
         style="font-style:normal;font-variant:normal;font-weight:normal;font-stretch:normal;font-size:7.5px;line-height:89.99999762%;font-family:Sans;-inkscape-font-specification:'Sans, Normal';text-align:start;writing-mode:lr-tb;text-anchor:start;stroke:#ffffff;stroke-opacity:1">33</tspan></text>
    <rect
       y="452.17078"
       x="264.66797"
       height="10"
       width="20"
       id="rect4544"
       style="opacity:1;fill:#0a000a;fill-opacity:1;fill-rule:evenodd;stroke:none;stroke-width:2.5;stroke-linecap:round;stroke-linejoin:miter;stroke-miterlimit:4;stroke-dasharray:none;stroke-opacity:1"
       inkscape:export-xdpi="120"
       inkscape:export-ydpi="120" />
    <rect
       y="452.17078"
       x="264.66797"
       height="10"
       width="3"
       id="rect4546"
       style="opacity:1;fill:#666666;fill-opacity:1;fill-rule:evenodd;stroke:none;stroke-width:2.5;stroke-linecap:round;stroke-linejoin:miter;stroke-miterlimit:4;stroke-dasharray:none;stroke-opacity:1"
       inkscape:export-xdpi="120"
       inkscape:export-ydpi="120" />
    <rect
       style="opacity:1;fill:#666666;fill-opacity:1;fill-rule:evenodd;stroke:none;stroke-width:2.5;stroke-linecap:round;stroke-linejoin:miter;stroke-miterlimit:4;stroke-dasharray:none;stroke-opacity:1"
       id="rect4548"
       width="3"
       height="10"
       x="281.66061"
       y="452.17078"
       inkscape:export-xdpi="120"
       inkscape:export-ydpi="120" />
    <text
       sodipodi:linespacing="89.999998%"
       id="text4550"
       y="459.84088"
       x="270.17429"
       style="font-style:normal;font-variant:normal;font-weight:normal;font-stretch:normal;font-size:7.5px;line-height:89.99999762%;font-family:Sans;-inkscape-font-specification:'Sans, Normal';text-align:start;letter-spacing:0px;word-spacing:0px;writing-mode:lr-tb;text-anchor:start;fill:#000000;fill-opacity:1;stroke:none;stroke-width:1px;stroke-linecap:butt;stroke-linejoin:miter;stroke-opacity:1"
       xml:space="preserve"
       inkscape:export-xdpi="120"
       inkscape:export-ydpi="120"><tspan
         style="font-style:normal;font-variant:normal;font-weight:normal;font-stretch:normal;font-size:7.5px;line-height:89.99999762%;font-family:Sans;-inkscape-font-specification:'Sans, Normal';text-align:start;writing-mode:lr-tb;text-anchor:start;stroke:#ffffff;stroke-opacity:1"
         y="459.84088"
         x="270.17429"
         id="tspan4552"
         sodipodi:role="line">33</tspan></text>
    <rect
       style="opacity:1;fill:#0a000a;fill-opacity:1;fill-rule:evenodd;stroke:none;stroke-width:2.5;stroke-linecap:round;stroke-linejoin:miter;stroke-miterlimit:4;stroke-dasharray:none;stroke-opacity:1"
       id="rect4554"
       width="20"
       height="10"
       x="264.66797"
       y="467.05621"
       inkscape:export-xdpi="120"
       inkscape:export-ydpi="120" />
    <rect
       style="opacity:1;fill:#666666;fill-opacity:1;fill-rule:evenodd;stroke:none;stroke-width:2.5;stroke-linecap:round;stroke-linejoin:miter;stroke-miterlimit:4;stroke-dasharray:none;stroke-opacity:1"
       id="rect4556"
       width="3"
       height="10"
       x="264.66797"
       y="467.05621"
       inkscape:export-xdpi="120"
       inkscape:export-ydpi="120" />
    <rect
       y="467.05621"
       x="281.66061"
       height="10"
       width="3"
       id="rect4558"
       style="opacity:1;fill:#666666;fill-opacity:1;fill-rule:evenodd;stroke:none;stroke-width:2.5;stroke-linecap:round;stroke-linejoin:miter;stroke-miterlimit:4;stroke-dasharray:none;stroke-opacity:1"
       inkscape:export-xdpi="120"
       inkscape:export-ydpi="120" />
    <text
       xml:space="preserve"
       style="font-style:normal;font-variant:normal;font-weight:normal;font-stretch:normal;font-size:7.5px;line-height:89.99999762%;font-family:Sans;-inkscape-font-specification:'Sans, Normal';text-align:start;letter-spacing:0px;word-spacing:0px;writing-mode:lr-tb;text-anchor:start;fill:#000000;fill-opacity:1;stroke:none;stroke-width:1px;stroke-linecap:butt;stroke-linejoin:miter;stroke-opacity:1"
       x="270.17429"
       y="474.72632"
       id="text4560"
       sodipodi:linespacing="89.999998%"
       inkscape:export-xdpi="120"
       inkscape:export-ydpi="120"><tspan
         sodipodi:role="line"
         id="tspan4562"
         x="270.17429"
         y="474.72632"
         style="font-style:normal;font-variant:normal;font-weight:normal;font-stretch:normal;font-size:7.5px;line-height:89.99999762%;font-family:Sans;-inkscape-font-specification:'Sans, Normal';text-align:start;writing-mode:lr-tb;text-anchor:start;stroke:#ffffff;stroke-opacity:1">33</tspan></text>
    <rect
       y="482.19556"
       x="264.64697"
       height="10"
       width="20"
       id="rect4564"
       style="opacity:1;fill:#0a000a;fill-opacity:1;fill-rule:evenodd;stroke:none;stroke-width:2.5;stroke-linecap:round;stroke-linejoin:miter;stroke-miterlimit:4;stroke-dasharray:none;stroke-opacity:1"
       inkscape:export-xdpi="120"
       inkscape:export-ydpi="120" />
    <rect
       y="482.19556"
       x="264.64697"
       height="10"
       width="3"
       id="rect4566"
       style="opacity:1;fill:#666666;fill-opacity:1;fill-rule:evenodd;stroke:none;stroke-width:2.5;stroke-linecap:round;stroke-linejoin:miter;stroke-miterlimit:4;stroke-dasharray:none;stroke-opacity:1"
       inkscape:export-xdpi="120"
       inkscape:export-ydpi="120" />
    <rect
       style="opacity:1;fill:#666666;fill-opacity:1;fill-rule:evenodd;stroke:none;stroke-width:2.5;stroke-linecap:round;stroke-linejoin:miter;stroke-miterlimit:4;stroke-dasharray:none;stroke-opacity:1"
       id="rect4568"
       width="3"
       height="10"
       x="281.63965"
       y="482.19556"
       inkscape:export-xdpi="120"
       inkscape:export-ydpi="120" />
    <text
       sodipodi:linespacing="89.999998%"
       id="text4570"
       y="489.86566"
       x="270.15329"
       style="font-style:normal;font-variant:normal;font-weight:normal;font-stretch:normal;font-size:7.5px;line-height:89.99999762%;font-family:Sans;-inkscape-font-specification:'Sans, Normal';text-align:start;letter-spacing:0px;word-spacing:0px;writing-mode:lr-tb;text-anchor:start;fill:#000000;fill-opacity:1;stroke:none;stroke-width:1px;stroke-linecap:butt;stroke-linejoin:miter;stroke-opacity:1"
       xml:space="preserve"
       inkscape:export-xdpi="120"
       inkscape:export-ydpi="120"><tspan
         style="font-style:normal;font-variant:normal;font-weight:normal;font-stretch:normal;font-size:7.5px;line-height:89.99999762%;font-family:Sans;-inkscape-font-specification:'Sans, Normal';text-align:start;writing-mode:lr-tb;text-anchor:start;stroke:#ffffff;stroke-opacity:1"
         y="489.86566"
         x="270.15329"
         id="tspan4572"
         sodipodi:role="line">33</tspan></text>
    <rect
       style="opacity:1;fill:#0a000a;fill-opacity:1;fill-rule:evenodd;stroke:none;stroke-width:2.5;stroke-linecap:round;stroke-linejoin:miter;stroke-miterlimit:4;stroke-dasharray:none;stroke-opacity:1"
       id="rect4574"
       width="20"
       height="10"
       x="264.7186"
       y="497.23212"
       inkscape:export-xdpi="120"
       inkscape:export-ydpi="120" />
    <rect
       style="opacity:1;fill:#666666;fill-opacity:1;fill-rule:evenodd;stroke:none;stroke-width:2.5;stroke-linecap:round;stroke-linejoin:miter;stroke-miterlimit:4;stroke-dasharray:none;stroke-opacity:1"
       id="rect4576"
       width="3"
       height="10"
       x="264.7186"
       y="497.23212"
       inkscape:export-xdpi="120"
       inkscape:export-ydpi="120" />
    <rect
       y="497.23212"
       x="281.71124"
       height="10"
       width="3"
       id="rect4578"
       style="opacity:1;fill:#666666;fill-opacity:1;fill-rule:evenodd;stroke:none;stroke-width:2.5;stroke-linecap:round;stroke-linejoin:miter;stroke-miterlimit:4;stroke-dasharray:none;stroke-opacity:1"
       inkscape:export-xdpi="120"
       inkscape:export-ydpi="120" />
    <text
       xml:space="preserve"
       style="font-style:normal;font-variant:normal;font-weight:normal;font-stretch:normal;font-size:7.5px;line-height:89.99999762%;font-family:Sans;-inkscape-font-specification:'Sans, Normal';text-align:start;letter-spacing:0px;word-spacing:0px;writing-mode:lr-tb;text-anchor:start;fill:#000000;fill-opacity:1;stroke:none;stroke-width:1px;stroke-linecap:butt;stroke-linejoin:miter;stroke-opacity:1"
       x="270.22491"
       y="504.90222"
       id="text4580"
       sodipodi:linespacing="89.999998%"
       inkscape:export-xdpi="120"
       inkscape:export-ydpi="120"><tspan
         sodipodi:role="line"
         id="tspan4582"
         x="270.22491"
         y="504.90222"
         style="font-style:normal;font-variant:normal;font-weight:normal;font-stretch:normal;font-size:7.5px;line-height:89.99999762%;font-family:Sans;-inkscape-font-specification:'Sans, Normal';text-align:start;writing-mode:lr-tb;text-anchor:start;stroke:#ffffff;stroke-opacity:1">33</tspan></text>
    <rect
       y="512.11755"
       x="264.7186"
       height="10"
       width="20"
       id="rect4584"
       style="opacity:1;fill:#0a000a;fill-opacity:1;fill-rule:evenodd;stroke:none;stroke-width:2.5;stroke-linecap:round;stroke-linejoin:miter;stroke-miterlimit:4;stroke-dasharray:none;stroke-opacity:1"
       inkscape:export-xdpi="120"
       inkscape:export-ydpi="120" />
    <rect
       y="512.11755"
       x="264.7186"
       height="10"
       width="3"
       id="rect4586"
       style="opacity:1;fill:#666666;fill-opacity:1;fill-rule:evenodd;stroke:none;stroke-width:2.5;stroke-linecap:round;stroke-linejoin:miter;stroke-miterlimit:4;stroke-dasharray:none;stroke-opacity:1"
       inkscape:export-xdpi="120"
       inkscape:export-ydpi="120" />
    <rect
       style="opacity:1;fill:#666666;fill-opacity:1;fill-rule:evenodd;stroke:none;stroke-width:2.5;stroke-linecap:round;stroke-linejoin:miter;stroke-miterlimit:4;stroke-dasharray:none;stroke-opacity:1"
       id="rect4588"
       width="3"
       height="10"
       x="281.71124"
       y="512.11755"
       inkscape:export-xdpi="120"
       inkscape:export-ydpi="120" />
    <text
       sodipodi:linespacing="89.999998%"
       id="text4590"
       y="519.78766"
       x="270.22491"
       style="font-style:normal;font-variant:normal;font-weight:normal;font-stretch:normal;font-size:7.5px;line-height:89.99999762%;font-family:Sans;-inkscape-font-specification:'Sans, Normal';text-align:start;letter-spacing:0px;word-spacing:0px;writing-mode:lr-tb;text-anchor:start;fill:#000000;fill-opacity:1;stroke:none;stroke-width:1px;stroke-linecap:butt;stroke-linejoin:miter;stroke-opacity:1"
       xml:space="preserve"
       inkscape:export-xdpi="120"
       inkscape:export-ydpi="120"><tspan
         style="font-style:normal;font-variant:normal;font-weight:normal;font-stretch:normal;font-size:7.5px;line-height:89.99999762%;font-family:Sans;-inkscape-font-specification:'Sans, Normal';text-align:start;writing-mode:lr-tb;text-anchor:start;stroke:#ffffff;stroke-opacity:1"
         y="519.78766"
         x="270.22491"
         id="tspan4592"
         sodipodi:role="line">33</tspan></text>
    <path
       style="fill:none;fill-rule:evenodd;stroke:#b10000;stroke-width:1px;stroke-linecap:butt;stroke-linejoin:miter;stroke-opacity:1;marker-end:"
       d="m 202,454.3622 c 20.2874,-5.83025 39.6976,-13.41489 63.60757,-12"
       id="path4277"
       inkscape:connector-curvature="0"
       sodipodi:nodetypes="cc"
       inkscape:export-xdpi="120"
       inkscape:export-ydpi="120" />
    <path
       inkscape:connector-curvature="0"
       id="path4279"
       d="m 201.79748,465.09591 c 20.93747,-4.05007 41.61398,-9.01353 64.01261,-7.94954"
       style="fill:none;fill-rule:evenodd;stroke:#b10000;stroke-width:1px;stroke-linecap:butt;stroke-linejoin:miter;stroke-opacity:1;marker-end:"
       sodipodi:nodetypes="cc"
       inkscape:export-xdpi="120"
       inkscape:export-ydpi="120" />
    <path
       style="fill:none;fill-rule:evenodd;stroke:#b10000;stroke-width:1px;stroke-linecap:butt;stroke-linejoin:miter;stroke-opacity:1;marker-end:"
       d="m 202,475.01953 c 20.80062,-1.83346 41.52621,-3.817 63.81009,-2.68395"
       id="path4282"
       inkscape:connector-curvature="0"
       sodipodi:nodetypes="cc"
       inkscape:export-xdpi="120"
       inkscape:export-ydpi="120" />
    <path
       inkscape:connector-curvature="0"
       id="path4284"
       d="m 201.79748,484.5381 c 21.40505,1.86835 42.81009,4.06476 64.21514,2.98669"
       style="fill:none;fill-rule:evenodd;stroke:#b10000;stroke-width:1px;stroke-linecap:butt;stroke-linejoin:miter;stroke-opacity:1;marker-end:"
       sodipodi:nodetypes="cc"
       inkscape:export-xdpi="120"
       inkscape:export-ydpi="120" />
    <path
       style="fill:none;fill-rule:evenodd;stroke:#b10000;stroke-width:1px;stroke-linecap:butt;stroke-linejoin:miter;stroke-opacity:1;marker-end:"
       d="m 201.79748,494.86676 c 20.26929,4.5926 40.24893,9.70657 64.21514,7.64471"
       id="path4286"
       inkscape:connector-curvature="0"
       sodipodi:nodetypes="cc"
       inkscape:export-xdpi="120"
       inkscape:export-ydpi="120" />
    <path
       inkscape:connector-curvature="0"
       id="path4288"
       d="m 201.59496,504.79038 c 19.71781,7.6201 39.66289,14.81815 64.62018,12.70778"
       style="fill:none;fill-rule:evenodd;stroke:#b10000;stroke-width:1px;stroke-linecap:butt;stroke-linejoin:miter;stroke-opacity:1;marker-end:"
       sodipodi:nodetypes="cc"
       inkscape:export-xdpi="120"
       inkscape:export-ydpi="120" />
    <path
       style="fill:none;fill-rule:evenodd;stroke:#b10000;stroke-width:1px;stroke-linecap:butt;stroke-linejoin:miter;stroke-opacity:1;marker-end:"
       d="m 144.88755,516.06216 c -4.05558,37.87162 69.25033,30.56108 119.70927,31.5344"
       id="path4290"
       inkscape:connector-curvature="0"
       sodipodi:nodetypes="cc"
       inkscape:export-xdpi="120"
       inkscape:export-ydpi="120" />
    <path
       inkscape:connector-curvature="0"
       id="path4292"
       d="M 194.50666,514.714 C 189.77119,534.24016 229.86427,532.82383 265,532.46799"
       style="fill:none;fill-rule:evenodd;stroke:#b10000;stroke-width:1px;stroke-linecap:butt;stroke-linejoin:miter;stroke-opacity:1;marker-end:"
       sodipodi:nodetypes="cc"
       inkscape:export-xdpi="120"
       inkscape:export-ydpi="120" />
    <path
       style="fill:none;fill-rule:evenodd;stroke:#b10000;stroke-width:1px;stroke-linecap:butt;stroke-linejoin:miter;stroke-opacity:1;marker-end:"
       d="m 194.91171,445.24868 c -2.07344,-18.28687 41.58408,-17.97161 69.92448,-17.64432"
       id="path4294"
       inkscape:connector-curvature="0"
       sodipodi:nodetypes="cc"
       inkscape:export-xdpi="120"
       inkscape:export-ydpi="120" />
    <text
       xml:space="preserve"
       style="font-style:normal;font-variant:normal;font-weight:normal;font-stretch:normal;font-size:12.5px;line-height:125%;font-family:Sans;-inkscape-font-specification:'Sans, Normal';text-align:start;letter-spacing:0px;word-spacing:0px;writing-mode:lr-tb;text-anchor:start;fill:#000000;fill-opacity:1;stroke:none;stroke-width:1px;stroke-linecap:butt;stroke-linejoin:miter;stroke-opacity:1"
       x="155"
       y="538.36218"
       id="text4300"
       sodipodi:linespacing="125%"
       inkscape:export-xdpi="120"
       inkscape:export-ydpi="120"><tspan
         sodipodi:role="line"
         id="tspan4302"
         x="155"
         y="538.36218">CH_PD</tspan></text>
    <text
       xml:space="preserve"
       style="font-style:normal;font-variant:normal;font-weight:normal;font-stretch:normal;font-size:12.5px;line-height:125%;font-family:Sans;-inkscape-font-specification:'Sans, Normal';text-align:start;letter-spacing:0px;word-spacing:0px;writing-mode:lr-tb;text-anchor:start;fill:#000000;fill-opacity:1;stroke:none;stroke-width:1px;stroke-linecap:butt;stroke-linejoin:miter;stroke-opacity:1"
       x="215"
       y="427.36221"
       id="text4304"
       sodipodi:linespacing="125%"
       inkscape:export-xdpi="120"
       inkscape:export-ydpi="120"><tspan
         sodipodi:role="line"
         id="tspan4306"
         x="215"
         y="427.36221">GND</tspan></text>
    <text
       xml:space="preserve"
       style="font-style:normal;font-variant:normal;font-weight:normal;font-stretch:normal;font-size:12.5px;line-height:125%;font-family:Sans;-inkscape-font-specification:'Sans, Normal';text-align:start;letter-spacing:0px;word-spacing:0px;writing-mode:lr-tb;text-anchor:start;fill:#000000;fill-opacity:1;stroke:none;stroke-width:1px;stroke-linecap:butt;stroke-linejoin:miter;stroke-opacity:1"
       x="213"
       y="530.36218"
       id="text4308"
       sodipodi:linespacing="125%"
       inkscape:export-xdpi="120"
       inkscape:export-ydpi="120"><tspan
         sodipodi:role="line"
         id="tspan4310"
         x="213"
         y="530.36218">3.3V</tspan></text>
    <text
       xml:space="preserve"
       style="font-style:normal;font-variant:normal;font-weight:normal;font-stretch:normal;font-size:12.5px;line-height:125%;font-family:Sans;-inkscape-font-specification:'Sans, Normal';text-align:start;letter-spacing:0px;word-spacing:0px;writing-mode:lr-tb;text-anchor:start;fill:#000000;fill-opacity:1;stroke:none;stroke-width:1px;stroke-linecap:butt;stroke-linejoin:miter;stroke-opacity:1"
       x="231"
       y="441.36221"
       id="text4312"
       sodipodi:linespacing="125%"
       inkscape:export-xdpi="120"
       inkscape:export-ydpi="120"><tspan
         sodipodi:role="line"
         id="tspan4314"
         x="231"
         y="441.36221">SCLK</tspan></text>
    <text
       xml:space="preserve"
       style="font-style:normal;font-variant:normal;font-weight:normal;font-stretch:normal;font-size:12.5px;line-height:125%;font-family:Sans;-inkscape-font-specification:'Sans, Normal';text-align:start;letter-spacing:0px;word-spacing:0px;writing-mode:lr-tb;text-anchor:start;fill:#000000;fill-opacity:1;stroke:none;stroke-width:1px;stroke-linecap:butt;stroke-linejoin:miter;stroke-opacity:1"
       x="229"
       y="456.36221"
       id="text4316"
       sodipodi:linespacing="125%"
       inkscape:export-xdpi="120"
       inkscape:export-ydpi="120"><tspan
         sodipodi:role="line"
         id="tspan4318"
         x="229"
         y="456.36221">MOSI</tspan></text>
    <text
       xml:space="preserve"
       style="font-style:normal;font-variant:normal;font-weight:normal;font-stretch:normal;font-size:12.5px;line-height:125%;font-family:Sans;-inkscape-font-specification:'Sans, Normal';text-align:start;letter-spacing:0px;word-spacing:0px;writing-mode:lr-tb;text-anchor:start;fill:#000000;fill-opacity:1;stroke:none;stroke-width:1px;stroke-linecap:butt;stroke-linejoin:miter;stroke-opacity:1"
       x="216"
       y="471.36221"
       id="text4320"
       sodipodi:linespacing="125%"
       inkscape:export-xdpi="120"
       inkscape:export-ydpi="120"><tspan
         sodipodi:role="line"
         id="tspan4322"
         x="216"
         y="471.36221">GPIO10</tspan></text>
    <text
       xml:space="preserve"
       style="font-style:normal;font-variant:normal;font-weight:normal;font-stretch:normal;font-size:12.5px;line-height:125%;font-family:Sans;-inkscape-font-specification:'Sans, Normal';text-align:start;letter-spacing:0px;word-spacing:0px;writing-mode:lr-tb;text-anchor:start;fill:#000000;fill-opacity:1;stroke:none;stroke-width:1px;stroke-linecap:butt;stroke-linejoin:miter;stroke-opacity:1"
       x="223"
       y="486.36221"
       id="text4324"
       sodipodi:linespacing="125%"
       inkscape:export-xdpi="120"
       inkscape:export-ydpi="120"><tspan
         sodipodi:role="line"
         id="tspan4326"
         x="223"
         y="486.36221">GPIO9</tspan></text>
    <text
       xml:space="preserve"
       style="font-style:normal;font-variant:normal;font-weight:normal;font-stretch:normal;font-size:12.5px;line-height:125%;font-family:Sans;-inkscape-font-specification:'Sans, Normal';text-align:start;letter-spacing:0px;word-spacing:0px;writing-mode:lr-tb;text-anchor:start;fill:#000000;fill-opacity:1;stroke:none;stroke-width:1px;stroke-linecap:butt;stroke-linejoin:miter;stroke-opacity:1"
       x="227"
       y="500.36221"
       id="text4328"
       sodipodi:linespacing="125%"
       inkscape:export-xdpi="120"
       inkscape:export-ydpi="120"><tspan
         sodipodi:role="line"
         id="tspan4330"
         x="227"
         y="500.36221">MISO</tspan></text>
    <text
       xml:space="preserve"
       style="font-style:normal;font-variant:normal;font-weight:normal;font-stretch:normal;font-size:12.5px;line-height:125%;font-family:Sans;-inkscape-font-specification:'Sans, Normal';text-align:start;letter-spacing:0px;word-spacing:0px;writing-mode:lr-tb;text-anchor:start;fill:#000000;fill-opacity:1;stroke:none;stroke-width:1px;stroke-linecap:butt;stroke-linejoin:miter;stroke-opacity:1"
       x="236"
       y="516.36218"
       id="text4332"
       sodipodi:linespacing="125%"
       inkscape:export-xdpi="120"
       inkscape:export-ydpi="120"><tspan
         sodipodi:role="line"
         id="tspan4334"
         x="236"
         y="516.36218">CS0</tspan></text>
    <path
       style="fill:none;fill-rule:evenodd;stroke:#b10000;stroke-width:1px;stroke-linecap:butt;stroke-linejoin:miter;stroke-opacity:1;marker-end:"
       d="m 282.99513,442.3622 42.00487,0"
       id="path4336"
       inkscape:connector-curvature="0"
       sodipodi:nodetypes="cc"
       inkscape:export-xdpi="120"
       inkscape:export-ydpi="120" />
    <path
       sodipodi:nodetypes="cc"
       inkscape:connector-curvature="0"
       id="path4338"
       d="m 282.99513,442.3622 42.00487,0"
       style="fill:none;fill-rule:evenodd;stroke:#b10000;stroke-width:1px;stroke-linecap:butt;stroke-linejoin:miter;stroke-opacity:1;marker-end:"
       inkscape:export-xdpi="120"
       inkscape:export-ydpi="120" />
    <path
       style="fill:none;fill-rule:evenodd;stroke:#b10000;stroke-width:1px;stroke-linecap:butt;stroke-linejoin:miter;stroke-opacity:1;marker-end:"
       d="m 282.69134,457.45015 42.00487,0"
       id="path4634"
       inkscape:connector-curvature="0"
       sodipodi:nodetypes="cc"
       inkscape:export-xdpi="120"
       inkscape:export-ydpi="120" />
    <path
       sodipodi:nodetypes="cc"
       inkscape:connector-curvature="0"
       id="path6936"
       d="m 282.69134,472.43684 42.00487,0"
       style="fill:none;fill-rule:evenodd;stroke:#b10000;stroke-width:1px;stroke-linecap:butt;stroke-linejoin:miter;stroke-opacity:1;marker-end:"
       inkscape:export-xdpi="120"
       inkscape:export-ydpi="120" />
    <path
       style="fill:none;fill-rule:evenodd;stroke:#b10000;stroke-width:1px;stroke-linecap:butt;stroke-linejoin:miter;stroke-opacity:1;marker-end:"
       d="m 282.59008,487.32227 42.00487,0"
       id="path8910"
       inkscape:connector-curvature="0"
       sodipodi:nodetypes="cc"
       inkscape:export-xdpi="120"
       inkscape:export-ydpi="120" />
    <path
       sodipodi:nodetypes="cc"
       inkscape:connector-curvature="0"
       id="path10720"
       d="m 283.50143,502.30896 42.00487,0"
       style="fill:none;fill-rule:evenodd;stroke:#b10000;stroke-width:1px;stroke-linecap:butt;stroke-linejoin:miter;stroke-opacity:1;marker-end:"
       inkscape:export-xdpi="120"
       inkscape:export-ydpi="120" />
    <path
       style="fill:none;fill-rule:evenodd;stroke:#b10000;stroke-width:1px;stroke-linecap:butt;stroke-linejoin:miter;stroke-opacity:1;marker-end:"
       d="m 283.29891,517.39691 42.00487,0"
       id="path13186"
       inkscape:connector-curvature="0"
       sodipodi:nodetypes="cc"
       inkscape:export-xdpi="120"
       inkscape:export-ydpi="120" />
    <path
       sodipodi:nodetypes="cc"
       inkscape:connector-curvature="0"
       id="path15652"
       d="m 264.86933,532.48486 60.45902,-0.1074"
       style="fill:none;fill-rule:evenodd;stroke:#b10000;stroke-width:1px;stroke-linecap:butt;stroke-linejoin:miter;stroke-opacity:1;marker-end:"
       inkscape:export-xdpi="120"
       inkscape:export-ydpi="120" />
    <path
       style="fill:none;fill-rule:evenodd;stroke:#b10000;stroke-width:1px;stroke-linecap:butt;stroke-linejoin:miter;stroke-opacity:1;marker-end:"
       d="m 264.41366,547.52218 60.89012,-0.25315"
       id="path18118"
       inkscape:connector-curvature="0"
       sodipodi:nodetypes="cc"
       inkscape:export-xdpi="120"
       inkscape:export-ydpi="120" />
    <path
       sodipodi:nodetypes="cc"
       inkscape:connector-curvature="0"
       id="path21240"
       d="m 264.26177,427.57805 60.83949,0"
       style="fill:none;fill-rule:evenodd;stroke:#b10000;stroke-width:1px;stroke-linecap:butt;stroke-linejoin:miter;stroke-opacity:1;marker-end:"
       inkscape:export-xdpi="120"
       inkscape:export-ydpi="120" />
    <text
       xml:space="preserve"
       style="font-style:normal;font-variant:normal;font-weight:normal;font-stretch:normal;font-size:12.5px;line-height:125%;font-family:Sans;-inkscape-font-specification:'Sans, Normal';text-align:start;letter-spacing:0px;word-spacing:0px;writing-mode:lr-tb;text-anchor:start;fill:#000000;fill-opacity:1;stroke:none;stroke-width:1px;stroke-linecap:butt;stroke-linejoin:miter;stroke-opacity:1"
       x="330"
       y="432.36221"
       id="text32726"
       sodipodi:linespacing="125%"
       inkscape:export-xdpi="120"
       inkscape:export-ydpi="120"><tspan
         sodipodi:role="line"
         id="tspan32728"
         x="330"
         y="432.36221">#14: GND</tspan></text>
    <text
       xml:space="preserve"
       style="font-style:normal;font-variant:normal;font-weight:normal;font-stretch:normal;font-size:12.5px;line-height:125%;font-family:Sans;-inkscape-font-specification:'Sans, Normal';text-align:start;letter-spacing:0px;word-spacing:0px;writing-mode:lr-tb;text-anchor:start;fill:#000000;fill-opacity:1;stroke:none;stroke-width:1px;stroke-linecap:butt;stroke-linejoin:miter;stroke-opacity:1"
       x="330"
       y="447.36221"
       id="text32730"
       sodipodi:linespacing="125%"
       inkscape:export-xdpi="120"
       inkscape:export-ydpi="120"><tspan
         sodipodi:role="line"
         id="tspan32732"
         x="330"
         y="447.36221">#15: SD_CLK / GPIO22</tspan></text>
    <text
       xml:space="preserve"
       style="font-style:normal;font-variant:normal;font-weight:normal;font-stretch:normal;font-size:12.5px;line-height:125%;font-family:Sans;-inkscape-font-specification:'Sans, Normal';text-align:start;letter-spacing:0px;word-spacing:0px;writing-mode:lr-tb;text-anchor:start;fill:#000000;fill-opacity:1;stroke:none;stroke-width:1px;stroke-linecap:butt;stroke-linejoin:miter;stroke-opacity:1"
       x="330"
       y="462.36221"
       id="text32734"
       sodipodi:linespacing="125%"
       inkscape:export-xdpi="120"
       inkscape:export-ydpi="120"><tspan
         sodipodi:role="line"
         id="tspan32736"
         x="330"
         y="462.36221">#22: SD_D1 / GPIO25</tspan></text>
    <text
       xml:space="preserve"
       style="font-style:normal;font-variant:normal;font-weight:normal;font-stretch:normal;font-size:12.5px;line-height:125%;font-family:Sans;-inkscape-font-specification:'Sans, Normal';text-align:start;letter-spacing:0px;word-spacing:0px;writing-mode:lr-tb;text-anchor:start;fill:#000000;fill-opacity:1;stroke:none;stroke-width:1px;stroke-linecap:butt;stroke-linejoin:miter;stroke-opacity:1"
       x="330"
       y="477.36221"
       id="text32738"
       sodipodi:linespacing="125%"
       inkscape:export-xdpi="120"
       inkscape:export-ydpi="120"><tspan
         sodipodi:role="line"
         id="tspan32740"
         x="330"
         y="477.36221">#13: SD_D3 / GPIO27</tspan></text>
    <text
       xml:space="preserve"
       style="font-style:normal;font-variant:normal;font-weight:normal;font-stretch:normal;font-size:12.5px;line-height:125%;font-family:Sans;-inkscape-font-specification:'Sans, Normal';text-align:start;letter-spacing:0px;word-spacing:0px;writing-mode:lr-tb;text-anchor:start;fill:#000000;fill-opacity:1;stroke:none;stroke-width:1px;stroke-linecap:butt;stroke-linejoin:miter;stroke-opacity:1"
       x="330"
       y="492.36221"
       id="text32742"
       sodipodi:linespacing="125%"
       inkscape:export-xdpi="120"
       inkscape:export-ydpi="120"><tspan
         sodipodi:role="line"
         id="tspan32744"
         x="330"
         y="492.36221">#37: SD_D2 / GPIO26</tspan></text>
    <text
       xml:space="preserve"
       style="font-style:normal;font-variant:normal;font-weight:normal;font-stretch:normal;font-size:12.5px;line-height:125%;font-family:Sans;-inkscape-font-specification:'Sans, Normal';text-align:start;letter-spacing:0px;word-spacing:0px;writing-mode:lr-tb;text-anchor:start;fill:#000000;fill-opacity:1;stroke:none;stroke-width:1px;stroke-linecap:butt;stroke-linejoin:miter;stroke-opacity:1"
       x="330"
       y="507.36221"
       id="text32746"
       sodipodi:linespacing="125%"
       inkscape:export-xdpi="120"
       inkscape:export-ydpi="120"><tspan
         sodipodi:role="line"
         id="tspan32748"
         x="330"
         y="507.36221">#18: SD_D0 / GPIO24</tspan></text>
    <text
       xml:space="preserve"
       style="font-style:normal;font-variant:normal;font-weight:normal;font-stretch:normal;font-size:12.5px;line-height:125%;font-family:Sans;-inkscape-font-specification:'Sans, Normal';text-align:start;letter-spacing:0px;word-spacing:0px;writing-mode:lr-tb;text-anchor:start;fill:#000000;fill-opacity:1;stroke:none;stroke-width:1px;stroke-linecap:butt;stroke-linejoin:miter;stroke-opacity:1"
       x="330"
       y="522.36218"
       id="text32750"
       sodipodi:linespacing="125%"
       inkscape:export-xdpi="120"
       inkscape:export-ydpi="120"><tspan
         sodipodi:role="line"
         id="tspan32752"
         x="330"
         y="522.36218">#16: SD_CMD / GPIO23</tspan></text>
    <text
       xml:space="preserve"
       style="font-style:normal;font-variant:normal;font-weight:normal;font-stretch:normal;font-size:12.5px;line-height:125%;font-family:Sans;-inkscape-font-specification:'Sans, Normal';text-align:start;letter-spacing:0px;word-spacing:0px;writing-mode:lr-tb;text-anchor:start;fill:#000000;fill-opacity:1;stroke:none;stroke-width:1px;stroke-linecap:butt;stroke-linejoin:miter;stroke-opacity:1"
       x="330"
       y="537.36218"
       id="text32754"
       sodipodi:linespacing="125%"
       inkscape:export-xdpi="120"
       inkscape:export-ydpi="120"><tspan
         sodipodi:role="line"
         id="tspan32756"
         x="330"
         y="537.36218">#17: 3.3V</tspan></text>
    <text
       xml:space="preserve"
       style="font-style:normal;font-variant:normal;font-weight:normal;font-stretch:normal;font-size:12.5px;line-height:125%;font-family:Sans;-inkscape-font-specification:'Sans, Normal';text-align:start;letter-spacing:0px;word-spacing:0px;writing-mode:lr-tb;text-anchor:start;fill:#000000;fill-opacity:1;stroke:none;stroke-width:1px;stroke-linecap:butt;stroke-linejoin:miter;stroke-opacity:1"
       x="330"
       y="552.36218"
       id="text32758"
       sodipodi:linespacing="125%"
       inkscape:export-xdpi="120"
       inkscape:export-ydpi="120"><tspan
         sodipodi:role="line"
         id="tspan32760"
         x="330"
         y="552.36218">#27: ID_SD / GPIO0</tspan></text>
    <text
       xml:space="preserve"
       style="font-style:normal;font-variant:normal;font-weight:normal;font-stretch:normal;font-size:12.5px;line-height:125%;font-family:Sans;-inkscape-font-specification:'Sans, Normal';text-align:start;letter-spacing:0px;word-spacing:0px;writing-mode:lr-tb;text-anchor:start;fill:#000000;fill-opacity:1;stroke:none;stroke-width:1px;stroke-linecap:butt;stroke-linejoin:miter;stroke-opacity:1"
       x="335"
       y="407.36218"
       id="text32762"
       sodipodi:linespacing="125%"
       inkscape:export-xdpi="120"
       inkscape:export-ydpi="120"><tspan
         sodipodi:role="line"
         id="tspan32764"
         x="335"
         y="407.36218">Pin#</tspan></text>
    <text
       xml:space="preserve"
       style="font-style:normal;font-variant:normal;font-weight:normal;font-stretch:normal;font-size:12.5px;line-height:125%;font-family:Sans;-inkscape-font-specification:'Sans, Normal';text-align:start;letter-spacing:0px;word-spacing:0px;writing-mode:lr-tb;text-anchor:start;fill:#000000;fill-opacity:1;stroke:none;stroke-width:1px;stroke-linecap:butt;stroke-linejoin:miter;stroke-opacity:1"
       x="395"
       y="407.36221"
       id="text32766"
       sodipodi:linespacing="125%"
       inkscape:export-xdpi="120"
       inkscape:export-ydpi="120"><tspan
         sodipodi:role="line"
         id="tspan32768"
         x="395"
         y="407.36221">Name</tspan></text>
    <text
       xml:space="preserve"
       style="font-style:normal;font-variant:normal;font-weight:normal;font-stretch:normal;font-size:12.5px;line-height:125%;font-family:Sans;-inkscape-font-specification:'Sans, Normal';text-align:start;letter-spacing:0px;word-spacing:0px;writing-mode:lr-tb;text-anchor:start;fill:#000000;fill-opacity:1;stroke:none;stroke-width:1px;stroke-linecap:butt;stroke-linejoin:miter;stroke-opacity:1"
       x="350"
       y="387.36221"
       id="text32770"
       sodipodi:linespacing="125%"
       inkscape:export-xdpi="120"
       inkscape:export-ydpi="120"><tspan
         sodipodi:role="line"
         id="tspan32772"
         x="350"
         y="387.36221">Pi HAT connector</tspan></text>
  </g>
</svg>
